…
The Boston Celtics Revamp

After losing to the Golden State Warriors in the NBA Finals. The manager of the Boston Celtics wants to create a new offense for the team. Inspired by the Warrior’s offense and their legacy as repeating NBA champions, the manager decides to look into 3 point shooting as a stat to base his offense around. Which players should he find and is 3 point shooting really that correlated to success?

## # A tibble: 431 × 31
##       Rk Player      Pos     Age Tm        G    GS    MP    FG   FGA `FG%`  `3P`
##    <dbl> <chr>       <chr> <dbl> <chr> <dbl> <dbl> <dbl> <dbl> <dbl> <dbl> <dbl>
##  1     3 LaMarcus A… C        34 SAS      53    53  1754   391   793 0.493    61
##  2     5 Nickeil Al… SG       21 NOP      47     1   591    98   266 0.368    46
##  3     6 Grayson Al… SG       24 MEM      38     0   718   117   251 0.466    57
##  4     9 Al-Farouq … PF       29 ORL      18     2   380    25    86 0.291     9
##  5    10 Justin And… SG       26 BRK      10     1   107    10    38 0.263     6
##  6    11 Kyle Ander… SF       26 MEM      67    28  1330   157   331 0.474    24
##  7    13 Giannis An… PF       25 MIL      63    63  1917   685  1238 0.553    89
##  8    16 Carmelo An… PF       35 POR      58    58  1902   336   782 0.43     87
##  9    17 OG Anunoby  SF       22 TOR      69    68  2066   286   566 0.505    89
## 10    18 Ryan Arcid… PG       25 CHI      58     4   930    90   220 0.409    54
## # … with 421 more rows, and 19 more variables: `3PA` <dbl>, `3P%` <dbl>,
## #   `2P` <dbl>, `2PA` <dbl>, `2P%` <dbl>, `eFG%` <dbl>, FT <dbl>, FTA <dbl>,
## #   `FT%` <dbl>, ORB <dbl>, DRB <dbl>, TRB <dbl>, AST <dbl>, STL <dbl>,
## #   BLK <dbl>, TOV <dbl>, PF <dbl>, PTS <dbl>, `Player-additional` <chr>

## # A tibble: 30 × 17
##     ...1 Team    Age     W     L    PW    PL   MOV   SOS   SRS  ORtg  DRtg  NRtg
##    <dbl> <chr> <dbl> <dbl> <dbl> <dbl> <dbl> <dbl> <dbl> <dbl> <dbl> <dbl> <dbl>
##  1     1 Milw…  29.2    56    17    57    16 10.1  -0.67  9.41  112.  103.   9.5
##  2     2 Bost…  25.3    48    24    50    22  6.31 -0.47  5.83  113.  107    6.3
##  3     3 Los …  27.4    49    23    50    22  6.44  0.21  6.66  114.  108.   6.3
##  4     4 Toro…  26.6    53    19    50    22  6.24 -0.26  5.97  111.  105    6.1
##  5     5 Los …  29.5    52    19    48    23  5.79  0.49  6.28  112   106.   5.7
##  6     6 Dall…  26.1    43    32    49    26  4.95 -0.07  4.87  117.  112.   5  
##  7     7 Miam…  25.9    44    29    43    30  2.95 -0.35  2.59  112.  110.   3  
##  8     8 Hous…  29.2    44    28    42    30  2.96  0.17  3.13  113.  110.   2.8
##  9     9 Utah…  27.3    44    28    42    30  2.47  0.05  2.52  112.  110.   2.4
## 10    10 Phil…  26.3    43    30    42    31  2.38 -0.13  2.25  111.  109    2.3
## # … with 20 more rows, and 4 more variables: Pace <dbl>, FTr <dbl>,
## #   `3PAr` <dbl>, `TS%` <dbl>
…
