…
(home_winners <- data %>% 
  filter(Quarter == 1) %>%
  filter(SecLeft == 720) %>%
  filter(WinningTeam == HomeTeam))

## # A tibble: 625 × 41
##    URL       GameT…¹ Locat…² Date  Time  Winni…³ Quarter SecLeft AwayT…⁴ AwayP…⁵
##    <chr>     <chr>   <chr>   <chr> <tim> <chr>     <dbl>   <dbl> <chr>   <chr>  
##  1 /boxscor… regular Scotia… Octo… 20:00 TOR           1     720 NOP     Jump b…
##  2 /boxscor… regular STAPLE… Octo… 22:30 LAC           1     720 LAL     Jump b…
##  3 /boxscor… regular Spectr… Octo… 19:00 CHO           1     720 CHI     Jump b…
##  4 /boxscor… regular Amway … Octo… 19:00 ORL           1     720 CLE     Jump b…
##  5 /boxscor… regular Americ… Octo… 19:30 MIA           1     720 MEM     Jump b…
##  6 /boxscor… regular Wells … Octo… 19:30 PHI           1     720 BOS     Jump b…
##  7 /boxscor… regular Americ… Octo… 20:30 DAL           1     720 WAS     Jump b…
##  8 /boxscor… regular AT&T C… Octo… 20:30 SAS           1     720 NYK     Jump b…
##  9 /boxscor… regular Vivint… Octo… 21:00 UTA           1     720 OKC     Jump b…
## 10 /boxscor… regular Talkin… Octo… 22:00 PHO           1     720 SAC     Jump b…
## # … with 615 more rows, 31 more variables: AwayScore <dbl>, HomeTeam <chr>,
## #   HomePlay <chr>, HomeScore <dbl>, Shooter <chr>, ShotType <chr>,
## #   ShotOutcome <chr>, ShotDist <dbl>, Assister <chr>, Blocker <chr>,
## #   FoulType <chr>, Fouler <chr>, Fouled <chr>, Rebounder <chr>,
## #   ReboundType <chr>, ViolationPlayer <chr>, ViolationType <chr>,
## #   TimeoutTeam <chr>, FreeThrowShooter <chr>, FreeThrowOutcome <chr>,
## #   FreeThrowNum <chr>, EnterGame <chr>, LeaveGame <chr>, …
…
