…
OFFENSIVE REBOUNDS PER WIN

(offensive_reb_away <- data %>% 
  filter(WinningTeam == AwayTeam) %>%
  filter(ReboundType == 'offensive') %>%
  filter(!is.na(AwayPlay))%>%
  group_by(URL)%>%
  summarise(rebounds=n(),AwayPlay)
  )

## `summarise()` has grouped output by 'URL'. You can override using the `.groups`
## argument.

## # A tibble: 8,044 × 3
## # Groups:   URL [518]
##    URL                          rebounds AwayPlay                       
##    <chr>                           <int> <chr>                          
##  1 /boxscores/201910230BRK.html       23 Offensive rebound by Team      
##  2 /boxscores/201910230BRK.html       23 Offensive rebound by J. Culver 
##  3 /boxscores/201910230BRK.html       23 Offensive rebound by Team      
##  4 /boxscores/201910230BRK.html       23 Offensive rebound by K. Towns  
##  5 /boxscores/201910230BRK.html       23 Offensive rebound by A. Wiggins
##  6 /boxscores/201910230BRK.html       23 Offensive rebound by A. Wiggins
##  7 /boxscores/201910230BRK.html       23 Offensive rebound by A. Wiggins
##  8 /boxscores/201910230BRK.html       23 Offensive rebound by A. Wiggins
##  9 /boxscores/201910230BRK.html       23 Offensive rebound by Team      
## 10 /boxscores/201910230BRK.html       23 Offensive rebound by Team      
## # … with 8,034 more rows

(offensive_reb_home <- data %>% 
  filter(ReboundType == 'offensive') %>%
  filter(!is.na(HomePlay))%>%
  filter(WinningTeam == HomeTeam) %>%
  group_by(URL)%>%
  summarise(rebounds=n(),HomePlay)
  )

## `summarise()` has grouped output by 'URL'. You can override using the `.groups`
## argument.

## # A tibble: 10,077 × 3
## # Groups:   URL [625]
##    URL                          rebounds HomePlay                         
##    <chr>                           <int> <chr>                            
##  1 /boxscores/201910220LAC.html       14 Offensive rebound by I. Zubac    
##  2 /boxscores/201910220LAC.html       14 Offensive rebound by M. Harkless 
##  3 /boxscores/201910220LAC.html       14 Offensive rebound by M. Harrell  
##  4 /boxscores/201910220LAC.html       14 Offensive rebound by P. Beverley 
##  5 /boxscores/201910220LAC.html       14 Offensive rebound by J. Green    
##  6 /boxscores/201910220LAC.html       14 Offensive rebound by Team        
##  7 /boxscores/201910220LAC.html       14 Offensive rebound by Team        
##  8 /boxscores/201910220LAC.html       14 Offensive rebound by P. Patterson
##  9 /boxscores/201910220LAC.html       14 Offensive rebound by Team        
## 10 /boxscores/201910220LAC.html       14 Offensive rebound by M. Harkless 
## # … with 10,067 more rows
…
